…
另一方面，`transmute()`函数是`select()`和`mutate()`的组合。它将返回一些可能被转换的列的子集。例如，假设我们想要计算`Sepal.Length`和`Petal.Length`之间的绝对值，并返回与`Species`一起的结果。我们可以使用`transmute()`实现这两个任务，如下所示：

```py

rst = iris_tbl %>%
  transmute(Species, Diff = abs(Sepal.Length - Petal.Length))
>>> rst
# A tibble: 150 x 2
   Species  Diff
   <chr>   <dbl>
 1 setosa    3.7
 2 setosa    3.5
 3 setosa    3.4
 4 setosa    3.1
 5 setosa    3.6
 6 setosa    3.7
 7 setosa    3.2
 8 setosa    3.5
 9 setosa    3
10 setosa    3.4
# … with 140 more rows
```
…
本节将介绍一个练习，帮助您练习基于公共 Stack Overflow 数据集的不同数据转换、聚合和合并技术，该数据集包含一系列与 Stack Overflow 平台上发布的技术问题和答案相关的表。支持的原数据已上传到本书的配套 GitHub 仓库。我们将直接从源 GitHub 链接使用`readr`包下载，`readr`是`tidyverse`提供的一个易于使用、快速且友好的包，可以轻松读取各种数据源，包括来自网络的源。

### 练习 2.11 – 使用 Stack Overflow 数据集

让我们开始这个练习：

1.  从 GitHub 下载关于问题、标签及其映射表的三个数据源：

    ```py

    library(readr)
    df_questions = read_csv("https://raw.githubusercontent.com/PacktPublishing/The-Statistics-and-Machine-Learning-with-R-Workshop/main/Chapter_2/data/questions.csv")
    >>> df_questions
    # A tibble: 294,735 x 3
             id creation_date score
          <dbl> <date>        <dbl>
     1 22557677 2014-03-21        1
     2 22557707 2014-03-21        2
     3 22558084 2014-03-21        2
     4 22558395 2014-03-21        2
     5 22558613 2014-03-21        0
     6 22558677 2014-03-21        2
     7 22558887 2014-03-21        8
     8 22559180 2014-03-21        1
     9 22559312 2014-03-21        0
    10 22559322 2014-03-21        2
    # … with 294,725 more rows
    ```
…
    该数据集包含每个标签的 ID 和内容。为了分析标签，我们需要使用相关的映射键将这三个数据集合并成一个。

    ```py

    ```

1.  通过左连接将`df_question_tags`中的标签 ID 引用到`df_questions`中：

    ```py

    df_all = df_questions %>%
      left_join(df_question_tags, by=c("id"="question_id"))
    >>> df_all
    # A tibble: 545,694 x 4
             id creation_date score tag_id
          <dbl> <date>        <dbl>  <dbl>
     1 22557677 2014-03-21        1     18
     2 22557677 2014-03-21        1    139
     3 22557677 2014-03-21        1  16088
     4 22557677 2014-03-21        1   1672
     5 22557707 2014-03-21        2     NA
     6 22558084 2014-03-21        2   6419
     7 22558084 2014-03-21        2  92764
     8 22558395 2014-03-21        2   5569
     9 22558395 2014-03-21        2    134
    10 22558395 2014-03-21        2   9412
    # … with 545,684 more rows
    ```

    注意，当比较`df_questions`和`df_all`时，行数几乎翻了一番。您可能已经注意到这是由于一对一关系：一个问题通常有多个标签，所以在左连接操作期间，每个标签都会作为单独的行附加到左表中。

1.  让我们继续参考`df_tags`中的标签：

    ```py

    df_all = df_all %>%
      left_join(df_tags, by=c("tag_id"="id"))
    >>> df_all
    # A tibble: 545,694 x 5
             id creation_date score tag_id tag_name
          <dbl> <date>        <dbl>  <dbl> <chr>
     1 22557677 2014-03-21        1     18 regex
     2 22557677 2014-03-21        1    139 string
     3 22557677 2014-03-21        1  16088 time-complexity
     4 22557677 2014-03-21        1   1672 backreference
     5 22557707 2014-03-21        2     NA NA
     6 22558084 2014-03-21        2   6419 time-series
     7 22558084 2014-03-21        2  92764 panel-data
     8 22558395 2014-03-21        2   5569 function
     9 22558395 2014-03-21        2    134 sorting
    10 22558395 2014-03-21        2   9412 vectorization
    # … with 545,684 more rows
    ```

    接下来，我们将对标签进行一些分析，从计算它们的频率开始。

1.  按降序统计每个非`NA`标签的出现次数：

    ```py

    df_all = df_all %>%
      filter(!is.na(tag_name))
    rst = df_all %>%
      count(tag_name, sort = TRUE)
    >>> rst
    # A tibble: 7,840 x 2
       tag_name       n
       <chr>      <int>
     1 ggplot2    28228
     2 dataframe  18874
     3 shiny      14219
     4 dplyr      14039
     5 plot       11315
     6 data.table  8809
     7 matrix      6205
     8 loops       5149
     9 regex       4912
    10 function    4892
    # … with 7,830 more rows
    ```
…
1.  计算每月标签的平均出现次数。

    我们需要推导出标签的月度出现次数来计算它们的平均值。首先，我们必须为每个标签创建两个列来表示月份和年月：

    ```py

    df_all = df_all %>%
      mutate(month = month(creation_date),
             year_month = format(creation_date, "%Y%m"))
    >>> df_all
    # A tibble: 497,153 x 7
             id creation_date score tag_id tag_name            month year_month
          <dbl> <date>        <dbl>  <dbl> <chr>               <dbl> <chr>
     1 22557677 2014-03-21        1     18 regex                   3 201403
     2 22557677 2014-03-21        1    139 string                  3 201403
     3 22557677 2014-03-21        1  16088 time-complexity         3 201403
     4 22557677 2014-03-21        1   1672 backreference           3 201403
     5 22558084 2014-03-21        2   6419 time-series             3 201403
     6 22558084 2014-03-21        2  92764 panel-data              3 201403
     7 22558395 2014-03-21        2   5569 function                3 201403
     8 22558395 2014-03-21        2    134 sorting                 3 201403
     9 22558395 2014-03-21        2   9412 vectorization           3 201403
    10 22558395 2014-03-21        2  18621 operator-precedence     3 201403
    # … with 497,143 more rows
    ```

    然后，我们必须计算每年每月标签的出现次数：

    ```py
    rst1 = df_all %>%
      count(year_month, month)
    >>> rst1
    # A tibble: 130 x 3
       year_month month     n
       <chr>      <dbl> <int>
     1 200809         9    13
     2 200811        11     4
     3 200812        12     1
     4 200901         1     8
     5 200902         2    10
     6 200903         3     7
     7 200904         4    24
     8 200905         5     3
     9 200906         6    12
    10 200907         7   100
    # … with 120 more rows
    ```
…
    结果显示，3 月份标签的平均出现次数最高。也许学校刚刚开学，人们在 3 月份更加积极地学习和提问。

1.  计算每个标签的计数、最小值、平均分数和最大分数，并按计数降序排序：

    ```py

    rst = df_all %>%
      group_by(tag_name) %>%
      summarise(count = n(),
                min_score = min(score),
                mean_score = mean(score),
                max_score = max(score)) %>%
      arrange(desc(count))
    >>> rst
    # A tibble: 7,840 x 5
       tag_name   count min_score mean_score max_score
       <chr>      <int>     <dbl>      <dbl>     <dbl>
     1 ggplot2    28228        -9      2.61        666
     2 dataframe  18874       -11      2.31       1241
     3 shiny      14219        -7      1.45         79
     4 dplyr      14039        -9      1.95        685
     5 plot       11315       -10      2.24        515
     6 data.table  8809        -8      2.97        685
     7 matrix      6205       -10      1.66        149
     8 loops       5149        -8      0.743       180
     9 regex       4912        -9      2           242
    10 function    4892       -14      1.39        485
    # … with 7,830 more rows
    ```
…
