…
    在这里，我们使用了 `count()` 函数来计算每个唯一单词的频率。我们还可以通过其他 `dplyr` 操作来叠加此分析，例如从单词计数中移除停用词（例如，`the` 和 `a`）。停用词是文本挖掘中不传达额外意义的常见单词，通常从语料库中移除。我们可以使用 `get_stopwords()` 函数检查英语停用词列表，如下所示：

    ```py
    >>> get_stopwords()
    # A tibble: 175 x 2
       word      lexicon
       <chr>     <chr>
     1 i         snowball
     2 me        snowball
     3 my        snowball
     4 myself    snowball
     5 we        snowball
     6 our       snowball
     7 ours      snowball
     8 ourselves snowball
     9 you       snowball
    10 your      snowball
    # … with 165 more rows
    ```
…
