…
>>> data("iris")
>>> class(iris)
"data.frame"
The data() function loads the iris dataset, a default dataset provided by base R, and a DataFrame that’s checked using the class() function.

				Convert the dataset into tibble format and verify its data structure:

>>> iris_tbl = as_tibble(iris)
>>> class(iris_tbl)
"tbl_df"     "tbl"        "data.frame"
There are three class attributes in iris_tbl, which means that the object can be used as both a tibble and a DataFrame. Having multiple class attributes in one object supports better compatibility since we can treat it differently.
A tibble object also supports smart printing by listing the top few rows, the shape of the dataset (150 rows and 5 columns), and the data type of each column. On the other hand, a DataFrame would just display all its contents to the console when printed:

>>> iris_tbl
# A tibble: 150 x 5
   Sepal.Length Sepal.Width Petal.Length Petal.Width Species
          <dbl>       <dbl>        <dbl>       <dbl> <fct>
 1          5.1         3.5          1.4         0.2 setosa
 2          4.9         3            1.4         0.2 setosa
 3          4.7         3.2          1.3         0.2 setosa
 4          4.6         3.1          1.5         0.2 setosa
 5          5           3.6          1.4         0.2 setosa
 6          5.4         3.9          1.7         0.4 setosa
 7          4.6         3.4          1.4         0.3 setosa
 8          5           3.4          1.5         0.2 setosa
 9          4.4         2.9          1.4         0.2 setosa
10          4.9         3.1          1.5         0.1 setosa
# … with 140 more rows
…
			For this exercise, we have been asked to keep only the setosa species in the iris dataset using the pipe operator and the filter() function:

				Print all unique species in the iris dataset:

>>> unique(iris_tbl$Species)
setosa     versicolor virginica
Levels: setosa versicolor virginica
The result shows that the Species column is a factor with three levels.

				Keep only the "setosa" species in iris_tbl using filter() and save the result in iris_tbl_subset:

iris_tbl_subset = iris_tbl %>%
  filter(Species == "setosa")
>>> iris_tbl_subset
# A tibble: 50 x 5
   Sepal.Length Sepal.Width Petal.Length Petal.Width Species
          <dbl>       <dbl>        <dbl>       <dbl> <fct>
 1          5.1         3.5          1.4         0.2 setosa
 2          4.9         3            1.4         0.2 setosa
 3          4.7         3.2          1.3         0.2 setosa
 4          4.6         3.1          1.5         0.2 setosa
 5          5           3.6          1.4         0.2 setosa
 6          5.4         3.9          1.7         0.4 setosa
 7          4.6         3.4          1.4         0.3 setosa
 8          5           3.4          1.5         0.2 setosa
 9          4.4         2.9          1.4         0.2 setosa
10          4.9         3.1          1.5         0.1 setosa
# … with 40 more rows
…
			Sorting the dataset using the arrange() function

			Another common data transformation operation is sorting, which leads to a dataset with one or multiple columns arranged in increasing or decreasing order. This can be achieved via the arrange() function, which is provided by dplyr. Let’s go through an exercise to look at different ways of sorting a dataset.

			Exercise 2.03 – sorting using the arrange() function

			In this exercise, we will look at how to sort columns of a dataset in either ascending or descending order, as well as combine the sorting operation with filtering via the pipe operator:

				Sort the Sepal.Length column of the iris dataset in ascending order using arrange():

iris_tbl_sorted = iris_tbl %>%
  arrange(Sepal.Length)
>>> iris_tbl_sorted
# A tibble: 150 x 5
   Sepal.Length Sepal.Width Petal.Length Petal.Width Species
          <dbl>       <dbl>        <dbl>       <dbl> <fct>
 1          4.3         3            1.1         0.1 setosa
 2          4.4         2.9          1.4         0.2 setosa
 3          4.4         3            1.3         0.2 setosa
 4          4.4         3.2          1.3         0.2 setosa
 5          4.5         2.3          1.3         0.3 setosa
 6          4.6         3.1          1.5         0.2 setosa
 7          4.6         3.4          1.4         0.3 setosa
 8          4.6         3.6          1           0.2 setosa
 9          4.6         3.2          1.4         0.2 setosa
10          4.7         3.2          1.3         0.2 setosa
# … with 140 more rows
The result shows that the arrange() function sorts the specific column in ascending order by default. Now, let’s look at how to sort in descending order.

				Sort the same column in descending order:

iris_tbl_sorted = iris_tbl %>%
  arrange(desc(Sepal.Length))
>>> iris_tbl_sorted
# A tibble: 150 x 5
   Sepal.Length Sepal.Width Petal.Length Petal.Width Species
          <dbl>       <dbl>        <dbl>       <dbl> <fct>
 1          7.9         3.8          6.4         2   virginica
 2          7.7         3.8          6.7         2.2 virginica
 3          7.7         2.6          6.9         2.3 virginica
 4          7.7         2.8          6.7         2   virginica
 5          7.7         3            6.1         2.3 virginica
 6          7.6         3            6.6         2.1 virginica
 7          7.4         2.8          6.1         1.9 virginica
 8          7.3         2.9          6.3         1.8 virginica
 9          7.2         3.6          6.1         2.5 virginica
10          7.2         3.2          6           1.8 virginica
# … with 140 more rows
Adding the desc() function to the column before passing in arrange()can flip the ordering and achieve sorting in descending order. We can also pass in multiple columns to sort them sequentially.
Besides this, the arrange() function can also be used together with other data processing steps, such as filtering.

				Sort both Sepal.Length and Sepal.Width in descending order after keeping Species set to "setosa" only and Sepal.Length up to a maximum value of 5:

iris_tbl_subset_sorted = iris_tbl %>%
  filter(Species == "setosa",
         Sepal.Length <= 5) %>%
  arrange(desc(Sepal.Length),desc(Sepal.Width))
>>> iris_tbl_subset_sorted
# A tibble: 28 x 5
   Sepal.Length Sepal.Width Petal.Length Petal.Width Species
          <dbl>       <dbl>        <dbl>       <dbl> <fct>
 1          5           3.6          1.4         0.2 setosa
 2          5           3.5          1.3         0.3 setosa
 3          5           3.5          1.6         0.6 setosa
 4          5           3.4          1.5         0.2 setosa
 5          5           3.4          1.6         0.4 setosa
 6          5           3.3          1.4         0.2 setosa
 7          5           3.2          1.2         0.2 setosa
 8          5           3            1.6         0.2 setosa
 9          4.9         3.6          1.4         0.1 setosa
10          4.9         3.1          1.5         0.1 setosa
# … with 18 more rows
…
>>> paste("Before:", class(iris_tbl$Species))
iris_tbl = iris_tbl %>%
  mutate(Species = as.character(Species))
>>> paste("After:", class(iris_tbl$Species))
"Before: factor"
"After: character"
Here, we used the mutate() function to change the type of Species, which is referenced directly within the context of the iris_tbl object via the pipe operator.

				Create a column called ind to indicate whether Sepal.Width is bigger than Petal.Length:

iris_tbl = iris_tbl %>%
  mutate(ind = Sepal.Width > Petal.Length)
>>> iris_tbl
# A tibble: 150 x 6
   Sepal.Length Sepal.Width Petal.Length Petal.Width Species ind
          <dbl>       <dbl>        <dbl>       <dbl> <chr>   <lgl>
 1          5.1         3.5          1.4         0.2 setosa  TRUE
 2          4.9         3            1.4         0.2 setosa  TRUE
 3          4.7         3.2          1.3         0.2 setosa  TRUE
 4          4.6         3.1          1.5         0.2 setosa  TRUE
 5          5           3.6          1.4         0.2 setosa  TRUE
 6          5.4         3.9          1.7         0.4 setosa  TRUE
 7          4.6         3.4          1.4         0.3 setosa  TRUE
 8          5           3.4          1.5         0.2 setosa  TRUE
 9          4.4         2.9          1.4         0.2 setosa  TRUE
10          4.9         3.1          1.5         0.1 setosa  TRUE
# … with 140 more rows
…
			The select() function works by selecting the columns specified by the input argument, a vector of strings representing one or multiple columns. When using select() in the context of the pipe operator, it means that all the following statements are evaluated based on the selected columns. When the select statement comes last, it returns the selected columns as the output tibble object.

			Let’s go through an exercise on different ways of selecting columns from a dataset.

			Exercise 2.05 – selecting columns using select()

			In this exercise, we will look at different ways of selecting columns from a tibble dataset:

				Select the first three columns from the iris dataset:

rst = iris_tbl %>%
  select(Sepal.Length, Sepal.Width, Petal.Length)
>>> rst
# A tibble: 150 x 3
   Sepal.Length Sepal.Width Petal.Length
          <dbl>       <dbl>        <dbl>
 1          5.1         3.5          1.4
 2          4.9         3            1.4
 3          4.7         3.2          1.3
 4          4.6         3.1          1.5
 5          5           3.6          1.4
 6          5.4         3.9          1.7
 7          4.6         3.4          1.4
 8          5           3.4          1.5
 9          4.4         2.9          1.4
10          4.9         3.1          1.5
# … with 140 more rows
When you need to increase the number of columns to be selected, typing them one by one would become tedious. Another way to do this is to pass the first and last columns separated by a colon (:), as follows:

rst = iris_tbl %>%
  select(Sepal.Length:Petal.Length)
>>> rst
# A tibble: 150 x 3
   Sepal.Length Sepal.Width Petal.Length
          <dbl>       <dbl>        <dbl>
 1          5.1         3.5          1.4
 2          4.9         3            1.4
 3          4.7         3.2          1.3
 4          4.6         3.1          1.5
 5          5           3.6          1.4
 6          5.4         3.9          1.7
 7          4.6         3.4          1.4
 8          5           3.4          1.5
 9          4.4         2.9          1.4
10          4.9         3.1          1.5
# … with 140 more rows
This approach selects all columns contained between Sepal.Length and Petal.Length. Using a colon helps us select multiple consecutive columns in one shot. Besides, we can also combine it with other individual columns via the c() function.

				Select columns that contain "length":

rst = iris_tbl %>%
  select(contains("length"))
>>> rst
# A tibble: 150 x 2
   Sepal.Length Petal.Length
          <dbl>        <dbl>
 1          5.1          1.4
 2          4.9          1.4
 3          4.7          1.3
 4          4.6          1.5
 5          5            1.4
 6          5.4          1.7
 7          4.6          1.4
 8          5            1.5
 9          4.4          1.4
10          4.9          1.5
# … with 140 more rows
Here, we used the contains() function to perform a case-insensitive string match. Other utility functions that support string matching include starts_with() and ends_with(). Let’s look at an example.

				Select columns that start with "petal":

rst = iris_tbl %>%
  select(starts_with("petal"))
>>> rst
# A tibble: 150 x 2
   Petal.Length Petal.Width
          <dbl>       <dbl>
 1          1.4         0.2
 2          1.4         0.2
 3          1.3         0.2
 4          1.5         0.2
 5          1.4         0.2
 6          1.7         0.4
 7          1.4         0.3
 8          1.5         0.2
 9          1.4         0.2
10          1.5         0.1
# … with 140 more rows
…
			Introducing other verbs

			Two other verbs are also commonly used: rename() and transmute(). The rename() function changes the name of a specific column. For example, when using the count() function, a column named n is automatically created. We can use rename(Count = n) within the pipe context to change its default name from n to Count.

			There is another way to change the column’s name. When selecting a column of a dataset, we can pass the same statement that we did to rename() to the select() function. For example, the following code shows selecting the Sepal.Length and Sepal.Width columns from the iris dataset while renaming the second column Sepal_Width:

rst = iris_tbl %>%
  select(Sepal.Length, Sepal_Width=Sepal.Width)
>>> rst
# A tibble: 150 x 2
   Sepal.Length Sepal_Width
          <dbl>       <dbl>
 1          5.1         3.5
 2          4.9         3
 3          4.7         3.2
 4          4.6         3.1
 5          5           3.6
 6          5.4         3.9
 7          4.6         3.4
 8          5           3.4
 9          4.4         2.9
10          4.9         3.1
# … with 140 more rows
			On the other hand, the transmute() function is a combination of select() and mutate(). It will return a subset of columns where some could be transformed. For example, suppose we would like to calculate the absolute between Sepal.Length and Petal.Length and return the result together with Species. We can achieve both tasks using transmute(), as follows:

rst = iris_tbl %>%
  transmute(Species, Diff = abs(Sepal.Length - Petal.Length))
>>> rst
# A tibble: 150 x 2
   Species  Diff
   <chr>   <dbl>
 1 setosa    3.7
 2 setosa    3.5
 3 setosa    3.4
 4 setosa    3.1
 5 setosa    3.6
 6 setosa    3.7
 7 setosa    3.2
 8 setosa    3.5
 9 setosa    3
10 setosa    3.4
# … with 140 more rows
…
			Case study – working with the Stack Overflow dataset

			This section will cover an exercise to help you practice different data transformation, aggregation, and merging techniques based on the public Stack Overflow dataset, which contains a set of tables related to technical questions and answers posted on the Stack Overflow platform. The supporting raw data has been uploaded to the accompanying Github repository of this book. We will directly download it from the source GitHub link using the readr package, another tidyverse offering that provides an easy, fast, and friendly way to read a wide range of data sources, including those from the web.

			Exercise 2.11 – working with the Stack Overflow dataset

			Let’s begin this exercise:

				Download three data sources on questions, tags, and their mapping table from GitHub:

library(readr)
df_questions = read_csv("https://raw.githubusercontent.com/PacktPublishing/The-Statistics-and-Machine-Learning-with-R-Workshop/main/Chapter_2/data/questions.csv")
>>> df_questions
# A tibble: 294,735 x 3
         id creation_date score
      <dbl> <date>        <dbl>
 1 22557677 2014-03-21        1
 2 22557707 2014-03-21        2
 3 22558084 2014-03-21        2
 4 22558395 2014-03-21        2
 5 22558613 2014-03-21        0
 6 22558677 2014-03-21        2
 7 22558887 2014-03-21        8
 8 22559180 2014-03-21        1
 9 22559312 2014-03-21        0
10 22559322 2014-03-21        2
# … with 294,725 more rows
The questions dataset contains the question ID, date of creation, and score, which indicates the number of (positive) upvotes and (negative) downvotes. We can examine the range of scores using the summary() function:

>>> summary(df_questions$score)
    Min.  1st Qu.   Median     Mean  3rd Qu.     Max.
 -21.000    0.000    1.000    1.904    2.000 2474.000
The range of scores is quite broad. Indeed, many answers wait for excellent and proper questions to be asked. Do remember to ask questions when in doubt and search for similar questions other people have asked.
Let’s import the other two data sources:

df_question_tags = read_csv("https://raw.githubusercontent.com/PacktPublishing/The-Statistics-and-Machine-Learning-with-R-Workshop/main/Chapter_2/data/question_tags.csv")
>>> df_question_tags
# A tibble: 497,153 x 2
   question_id tag_id
         <dbl>  <dbl>
 1    22557677     18
 2    22557677    139
 3    22557677  16088
 4    22557677   1672
 5    22558084   6419
 6    22558084  92764
 7    22558395   5569
 8    22558395    134
 9    22558395   9412
10    22558395  18621
# … with 497,143 more rows
This dataset contains the mapping table between question_id and tag_id:

df_tags = read_csv("https://raw.githubusercontent.com/PacktPublishing/The-Statistics-and-Machine-Learning-with-R-Workshop/main/Chapter_2/data/tags.csv")
>>> df_tags
# A tibble: 48,299 x 2
       id tag_name
    <dbl> <chr>
 1 124399 laravel-dusk
 2 124402 spring-cloud-vault-config
 3 124404 spring-vault
 4 124405 apache-bahir
 5 124407 astc
 6 124408 simulacrum
 7 124410 angulartics2
 8 124411 django-rest-viewsets
 9 124414 react-native-lightbox
10 124417 java-module
# … with 48,289 more rows
This dataset contains the ID and the content of each tag. To analyze the tags, we need to merge the three datasets into one using the relevant mapping keys.

				Reference the tag ID from df_question_tags into df_questions via a left join:

df_all = df_questions %>%
  left_join(df_question_tags, by=c("id"="question_id"))
>>> df_all
# A tibble: 545,694 x 4
         id creation_date score tag_id
      <dbl> <date>        <dbl>  <dbl>
 1 22557677 2014-03-21        1     18
 2 22557677 2014-03-21        1    139
 3 22557677 2014-03-21        1  16088
 4 22557677 2014-03-21        1   1672
 5 22557707 2014-03-21        2     NA
 6 22558084 2014-03-21        2   6419
 7 22558084 2014-03-21        2  92764
 8 22558395 2014-03-21        2   5569
 9 22558395 2014-03-21        2    134
10 22558395 2014-03-21        2   9412
# … with 545,684 more rows
Note that the total number of rows almost doubled when comparing df_questions to df_all. You may have noticed that this is due to the one-to-many relationship: a question often has multiple tags, so each tag gets appended as a separate row to the left table during the left join operation.

				Let’s continue to reference the tags from df_tags:

df_all = df_all %>%
  left_join(df_tags, by=c("tag_id"="id"))
>>> df_all
# A tibble: 545,694 x 5
         id creation_date score tag_id tag_name
      <dbl> <date>        <dbl>  <dbl> <chr>
 1 22557677 2014-03-21        1     18 regex
 2 22557677 2014-03-21        1    139 string
 3 22557677 2014-03-21        1  16088 time-complexity
 4 22557677 2014-03-21        1   1672 backreference
 5 22557707 2014-03-21        2     NA NA
 6 22558084 2014-03-21        2   6419 time-series
 7 22558084 2014-03-21        2  92764 panel-data
 8 22558395 2014-03-21        2   5569 function
 9 22558395 2014-03-21        2    134 sorting
10 22558395 2014-03-21        2   9412 vectorization
# … with 545,684 more rows
Next, we will do some analysis of the tags, starting with counting their frequency.

				Count the occurrence of each non-NA tag in descending order:

df_all = df_all %>%
  filter(!is.na(tag_name))
rst = df_all %>%
  count(tag_name, sort = TRUE)
>>> rst
# A tibble: 7,840 x 2
   tag_name       n
   <chr>      <int>
 1 ggplot2    28228
 2 dataframe  18874
 3 shiny      14219
 4 dplyr      14039
 5 plot       11315
 6 data.table  8809
 7 matrix      6205
 8 loops       5149
 9 regex       4912
10 function    4892
# … with 7,830 more rows
…
