…
			When we are in the opposite situation, where the given data is in a wide format, we can use the gather() function to convert it into a long format for more convenient follow-up processing. For example, by compressing the four country columns into the key variable and storing all heights under the value variable specified in gather(), we can continue with the usual split-apply-combine treatments we introduced earlier based on just two columns instead of four or more.

			The gather() function also uses the key and value arguments to specify the name of the resulting key and value columns in the long-formatted table. Besides, we need to specify the columns whose names are used to fill in the key column and the values in the value column. When there are many adjacent columns to specify, we can use the : operator by passing the starting and ending column names to select all columns in between. Let’s go through a practice exercise.

			Exercise 3.5 – converting from wide format into long format

			This exercise will convert the wide-formatted students_wide DataFrame back into its original long format:

				Convert students_wide into a long format by specifying the key column as country and the value column as height, and using the values of the CN, IN, SG, and UK columns to fill in the key and value columns, respectively:

students_long = students_wide %>%
  gather(key = "country", value = "height", CN:UK)
>>> students_long
# A tibble: 28 x 4
     age gender country height
   <dbl> <chr>  <chr>    <dbl>
 1    25 M      CN         170
 2    26 F      CN          NA
 3    28 M      CN          NA
 4    29 F      CN          NA
 5    29 M      CN          NA
 6    30 F      CN         169
 7    31 M      CN          NA
 8    25 M      IN          NA
 9    26 F      IN          NA
10    28 M      IN          NA
# … with 18 more rows
…
>>> get_stopwords()
# A tibble: 175 x 2
   word      lexicon
   <chr>     <chr>
 1 i         snowball
 2 me        snowball
 3 my        snowball
 4 myself    snowball
 5 we        snowball
 6 our       snowball
 7 ours      snowball
 8 ourselves snowball
 9 you       snowball
10 your      snowball
# … with 165 more rows
…
