…
			This is where EAD comes in. Instead of being a rigid statistical procedure, EAD is a set of exploratory analyses that enables you to develop a better understanding of the features and potential relationships in the data. It serves as a transitional analysis to guide modeling later on, involving both the data manipulation and visualization techniques we learned earlier. It helps summarize salient characteristics of the data through various forms of visual aids, facilitating the extraction of important features.

			There are two broad types of EDA: descriptive statistics such as the mean, median, mode, and inter-quantile range, and graphical descriptions such as density plots, histograms, box plots, and so on.

			A typical EAD process includes analyzing categorical and numerical variables, both standalone in univariate analysis and in combination via bivariate and multivariate analysis. Common practices include analyzing the distribution of a given set of variables and examining missing values and outliers. In the following sections, we will start by analyzing different types of data, including categorical and numerical variables. We will then go through a case study to apply and reinforce the techniques covered in previous chapters using dplyr and ggplot2.

			Analyzing categorical data

			In this section, we will look at how to analyze two categorical variables via graphical and numerical summaries. We will use a dataset on comic characters from the Marvel comics universe, which should not be unfamiliar to you if you are a fan of Marvel superheroes. The dataset is published by FiveThirtyEight and hosted on their GitHub page. We can directly read the data from the GitHub repository using the read_csv() function from the readr package, the data loading arm of the tidyverse universe, as shown in the following code snippet:

>>> library(readr)
>>> df = read_csv("https://raw.githubusercontent.com/fivethirtyeight/data/master/comic-characters/marvel-wikia-data.csv")
>>> head(df,5)
# A tibble: 16,376 × 13
   page_id name              urlslug ID    ALIGN EYE   HAIR  SEX   GSM   ALIVE APPEARANCES
     <dbl> <chr>             <chr>   <chr> <chr> <chr> <chr> <chr> <chr> <chr>       <dbl>
 1    1678 "Spider-Man (Pet… "\\/Sp… Secr… Good… Haze… Brow… Male… NA    Livi…        4043
 2    7139 "Captain America… "\\/Ca… Publ… Good… Blue… Whit… Male… NA    Livi…        3360
 3   64786 "Wolverine (Jame… "\\/Wo… Publ… Neut… Blue… Blac… Male… NA    Livi…        3061
 4    1868 "Iron Man (Antho… "\\/Ir… Publ… Good… Blue… Blac… Male… NA    Livi…        2961
 5    2460 "Thor (Thor Odin… "\\/Th… No D… Good… Blue… Blon… Male… NA    Livi…        2258
 6    2458 "Benjamin Grimm … "\\/Be… Publ… Good… Blue… No H… Male… NA    Livi…        2255
 7    2166 "Reed Richards (… "\\/Re… Publ… Good… Brow… Brow… Male… NA    Livi…        2072
 8    1833 "Hulk (Robert Br… "\\/Hu… Publ… Good… Brow… Brow… Male… NA    Livi…        2017
 9   29481 "Scott Summers (… "\\/Sc… Publ… Neut… Brow… Brow… Male… NA    Livi…        1955
10    1837 "Jonathan Storm … "\\/Jo… Publ… Good… Blue… Blon… Male… NA    Livi…        1934
# … with 16,366 more rows, and 2 more variables: `FIRST APPEARANCE` <chr>, Year <dbl>
…
